final/03/PC_Result.txt
//vvp PC.out

   0ns clock=0 in=    7 reset=0 inc=0 load=0 out=    x
   2ns clock=1 in=    7 reset=0 inc=0 load=0 out=    x
   4ns clock=0 in=    7 reset=0 inc=0 load=0 out=    x
   6ns clock=1 in=    7 reset=0 inc=0 load=0 out=    x
   8ns clock=0 in=    7 reset=0 inc=0 load=0 out=    x
  10ns clock=1 in=    7 reset=1 inc=1 load=0 out=    x
  12ns clock=0 in=    7 reset=1 inc=1 load=0 out=    x
  14ns clock=1 in=    7 reset=1 inc=1 load=0 out=    0
  16ns clock=0 in=    7 reset=1 inc=1 load=0 out=    0
  18ns clock=1 in=    7 reset=1 inc=1 load=0 out=    0
  20ns clock=0 in=    7 reset=0 inc=1 load=0 out=    0
  22ns clock=1 in=    7 reset=0 inc=1 load=0 out=    1
  24ns clock=0 in=    7 reset=0 inc=1 load=0 out=    1
  26ns clock=1 in=    7 reset=0 inc=1 load=0 out=    0
  28ns clock=0 in=    7 reset=0 inc=1 load=0 out=    0
  30ns clock=1 in=    7 reset=0 inc=1 load=0 out=    1
  32ns clock=0 in=    7 reset=0 inc=1 load=0 out=    1
  34ns clock=1 in=    7 reset=0 inc=1 load=0 out=    0
  36ns clock=0 in=    7 reset=0 inc=1 load=0 out=    0
  38ns clock=1 in=    7 reset=0 inc=1 load=0 out=    1
  40ns clock=0 in=    7 reset=0 inc=1 load=0 out=    1
  42ns clock=1 in=    7 reset=0 inc=1 load=0 out=    0
  44ns clock=0 in=    7 reset=0 inc=1 load=0 out=    0
  46ns clock=1 in=    7 reset=0 inc=1 load=0 out=    1
  48ns clock=0 in=    7 reset=0 inc=1 load=0 out=    1
  50ns clock=1 in=    7 reset=0 inc=1 load=0 out=    0
  52ns clock=0 in=    7 reset=0 inc=1 load=0 out=    0
  54ns clock=1 in=    7 reset=0 inc=1 load=0 out=    1
  56ns clock=0 in=    7 reset=0 inc=1 load=0 out=    1
  58ns clock=1 in=    7 reset=0 inc=1 load=0 out=    0
  60ns clock=0 in=    7 reset=0 inc=0 load=1 out=    0
  62ns clock=1 in=    7 reset=0 inc=0 load=1 out=    7
  64ns clock=0 in=    7 reset=0 inc=0 load=1 out=    7
  66ns clock=1 in=    7 reset=0 inc=0 load=1 out=    7
  68ns clock=0 in=    7 reset=0 inc=0 load=1 out=    7
  70ns clock=1 in=    7 reset=0 inc=0 load=1 out=    7
  72ns clock=0 in=    7 reset=0 inc=0 load=1 out=    7
  74ns clock=1 in=    7 reset=0 inc=0 load=1 out=    7
  76ns clock=0 in=    7 reset=0 inc=0 load=1 out=    7
  78ns clock=1 in=    7 reset=0 inc=0 load=1 out=    7
  80ns clock=0 in=    7 reset=0 inc=0 load=1 out=    7
  82ns clock=1 in=    7 reset=0 inc=0 load=1 out=    7
  84ns clock=0 in=    7 reset=0 inc=0 load=1 out=    7
  86ns clock=1 in=    7 reset=0 inc=0 load=1 out=    7
  88ns clock=0 in=    7 reset=0 inc=0 load=1 out=    7
  90ns clock=1 in=    7 reset=0 inc=1 load=0 out=    7
  92ns clock=0 in=    7 reset=0 inc=1 load=0 out=    7
  94ns clock=1 in=    7 reset=0 inc=1 load=0 out=    6
  96ns clock=0 in=    7 reset=0 inc=1 load=0 out=    6
  98ns clock=1 in=    7 reset=0 inc=1 load=0 out=    7
 100ns clock=0 in=    7 reset=0 inc=1 load=0 out=    7
 102ns clock=1 in=    7 reset=0 inc=1 load=0 out=    6
 104ns clock=0 in=    7 reset=0 inc=1 load=0 out=    6
 106ns clock=1 in=    7 reset=0 inc=1 load=0 out=    7
 108ns clock=0 in=    7 reset=0 inc=1 load=0 out=    7
 110ns clock=1 in=    7 reset=0 inc=1 load=0 out=    6
 112ns clock=0 in=    7 reset=0 inc=1 load=0 out=    6
 114ns clock=1 in=    7 reset=0 inc=1 load=0 out=    7
 116ns clock=0 in=    7 reset=0 inc=1 load=0 out=    7
 118ns clock=1 in=    7 reset=0 inc=1 load=0 out=    6
 PC_test.v:21: $finish called at 120 (1s)
 120ns clock=0 in=    7 reset=0 inc=1 load=0 out=    6